{
  "total": 23,
  "per": 8,
  "pages": 3,
  "page": "1",
  "list": [
    {
      "ID": 513,
      "Name": "彩·真刚·锐刃·狂攻(陆)",
      "UIID": "30084",
      "AttriName": null,
      "Attribute1ID": "atStrengthBase",
      "Attribute1Value1": "131",
      "Attribute1Value2": "131",
      "Score": 0,
      "DiamondType1": "5",
      "Compare1": "3",
      "DiamondCount1": "14",
      "DiamondIntensity1": "50",
      "Attribute2ID": "atPhysicsAttackPowerBase",
      "Attribute2Value1": "524",
      "Attribute2Value2": "524",
      "DiamondType2": "5",
      "Compare2": "3",
      "DiamondCount2": "16",
      "DiamondIntensity2": "90",
      "Attribute3ID": "atMeleeWeaponDamageBase",
      "Attribute3Value1": "1571",
      "Attribute3Value2": "1571",
      "DiamondType3": "5",
      "Compare3": "3",
      "DiamondCount3": "18",
      "DiamondIntensity3": "108",
      "ScriptName": null,
      "Attribute4ID": null,
      "Attribute4Value1": null,
      "Attribute4Value2": null,
      "RepresentIndex": null,
      "RepresentID": null,
      "Time": null,
      "DestItemSubType": null,
      "TabType": "5",
      "TabIndex": "0",
      "PackageSize": null,
      "MapInvalidMask": null,
      "BelongKungfuID": null,
      "is_stone": "1",
      "stone_level": "6",
      "icon": "2341",
      "subtype": "3",
      "_AttriName": null,
      "_Attrs": [
        "atStrengthBase",
        "atPhysicsAttackPowerBase",
        "atMeleeWeaponDamageBase"
      ],
      "_quality": null,
      "_latest_enhance": null
    },
    {
      "ID": 519,
      "Name": "彩·真刚·锐刃·斩铁(陆)",
      "UIID": "30090",
      "AttriName": null,
      "Attribute1ID": "atStrengthBase",
      "Attribute1Value1": "131",
      "Attribute1Value2": "131",
      "Score": 0,
      "DiamondType1": "5",
      "Compare1": "3",
      "DiamondCount1": "14",
      "DiamondIntensity1": "50",
      "Attribute2ID": "atPhysicsAttackPowerBase",
      "Attribute2Value1": "524",
      "Attribute2Value2": "524",
      "DiamondType2": "5",
      "Compare2": "3",
      "DiamondCount2": "16",
      "DiamondIntensity2": "90",
      "Attribute3ID": "atPhysicsOvercomeBase",
      "Attribute3Value1": "2340",
      "Attribute3Value2": "2340",
      "DiamondType3": "5",
      "Compare3": "3",
      "DiamondCount3": "18",
      "DiamondIntensity3": "108",
      "ScriptName": null,
      "Attribute4ID": null,
      "Attribute4Value1": null,
      "Attribute4Value2": null,
      "RepresentIndex": null,
      "RepresentID": null,
      "Time": null,
      "DestItemSubType": null,
      "TabType": "5",
      "TabIndex": "0",
      "PackageSize": null,
      "MapInvalidMask": null,
      "BelongKungfuID": null,
      "is_stone": "1",
      "stone_level": "6",
      "icon": "2341",
      "subtype": "3",
      "_AttriName": null,
      "_Attrs": [
        "atStrengthBase",
        "atPhysicsAttackPowerBase",
        "atPhysicsOvercomeBase"
      ],
      "_quality": null,
      "_latest_enhance": null
    },
    {
      "ID": 525,
      "Name": "彩·真刚·锐刃·痛击(陆)",
      "UIID": "30096",
      "AttriName": null,
      "Attribute1ID": "atStrengthBase",
      "Attribute1Value1": "131",
      "Attribute1Value2": "131",
      "Score": 0,
      "DiamondType1": "5",
      "Compare1": "3",
      "DiamondCount1": "14",
      "DiamondIntensity1": "50",
      "Attribute2ID": "atPhysicsAttackPowerBase",
      "Attribute2Value1": "524",
      "Attribute2Value2": "524",
      "DiamondType2": "5",
      "Compare2": "3",
      "DiamondCount2": "16",
      "DiamondIntensity2": "90",
      "Attribute3ID": "atPhysicsCriticalDamagePowerBase",
      "Attribute3Value1": "2340",
      "Attribute3Value2": "2340",
      "DiamondType3": "5",
      "Compare3": "3",
      "DiamondCount3": "18",
      "DiamondIntensity3": "108",
      "ScriptName": null,
      "Attribute4ID": null,
      "Attribute4Value1": null,
      "Attribute4Value2": null,
      "RepresentIndex": null,
      "RepresentID": null,
      "Time": null,
      "DestItemSubType": null,
      "TabType": "5",
      "TabIndex": "0",
      "PackageSize": null,
      "MapInvalidMask": null,
      "BelongKungfuID": null,
      "is_stone": "1",
      "stone_level": "6",
      "icon": "2341",
      "subtype": "3",
      "_AttriName": null,
      "_Attrs": [
        "atStrengthBase",
        "atPhysicsAttackPowerBase",
        "atPhysicsCriticalDamagePowerBase"
      ],
      "_quality": null,
      "_latest_enhance": null
    },
    {
      "ID": 531,
      "Name": "彩·真刚·斩铁·狂攻(陆)",
      "UIID": "30102",
      "AttriName": null,
      "Attribute1ID": "atStrengthBase",
      "Attribute1Value1": "131",
      "Attribute1Value2": "131",
      "Score": 0,
      "DiamondType1": "5",
      "Compare1": "3",
      "DiamondCount1": "14",
      "DiamondIntensity1": "50",
      "Attribute2ID": "atPhysicsOvercomeBase",
      "Attribute2Value1": "1170",
      "Attribute2Value2": "1170",
      "DiamondType2": "5",
      "Compare2": "3",
      "DiamondCount2": "16",
      "DiamondIntensity2": "90",
      "Attribute3ID": "atMeleeWeaponDamageBase",
      "Attribute3Value1": "1571",
      "Attribute3Value2": "1571",
      "DiamondType3": "5",
      "Compare3": "3",
      "DiamondCount3": "18",
      "DiamondIntensity3": "108",
      "ScriptName": null,
      "Attribute4ID": null,
      "Attribute4Value1": null,
      "Attribute4Value2": null,
      "RepresentIndex": null,
      "RepresentID": null,
      "Time": null,
      "DestItemSubType": null,
      "TabType": "5",
      "TabIndex": "0",
      "PackageSize": null,
      "MapInvalidMask": null,
      "BelongKungfuID": null,
      "is_stone": "1",
      "stone_level": "6",
      "icon": "2341",
      "subtype": "3",
      "_AttriName": null,
      "_Attrs": [
        "atStrengthBase",
        "atPhysicsOvercomeBase",
        "atMeleeWeaponDamageBase"
      ],
      "_quality": null,
      "_latest_enhance": null
    },
    {
      "ID": 537,
      "Name": "彩·真刚·斩铁·锐刃(陆)",
      "UIID": "30108",
      "AttriName": null,
      "Attribute1ID": "atStrengthBase",
      "Attribute1Value1": "131",
      "Attribute1Value2": "131",
      "Score": 0,
      "DiamondType1": "5",
      "Compare1": "3",
      "DiamondCount1": "14",
      "DiamondIntensity1": "50",
      "Attribute2ID": "atPhysicsOvercomeBase",
      "Attribute2Value1": "1170",
      "Attribute2Value2": "1170",
      "DiamondType2": "5",
      "Compare2": "3",
      "DiamondCount2": "16",
      "DiamondIntensity2": "90",
      "Attribute3ID": "atPhysicsAttackPowerBase",
      "Attribute3Value1": "1048",
      "Attribute3Value2": "1048",
      "DiamondType3": "5",
      "Compare3": "3",
      "DiamondCount3": "18",
      "DiamondIntensity3": "108",
      "ScriptName": null,
      "Attribute4ID": null,
      "Attribute4Value1": null,
      "Attribute4Value2": null,
      "RepresentIndex": null,
      "RepresentID": null,
      "Time": null,
      "DestItemSubType": null,
      "TabType": "5",
      "TabIndex": "0",
      "PackageSize": null,
      "MapInvalidMask": null,
      "BelongKungfuID": null,
      "is_stone": "1",
      "stone_level": "6",
      "icon": "2341",
      "subtype": "3",
      "_AttriName": null,
      "_Attrs": [
        "atStrengthBase",
        "atPhysicsOvercomeBase",
        "atPhysicsAttackPowerBase"
      ],
      "_quality": null,
      "_latest_enhance": null
    },
    {
      "ID": 543,
      "Name": "彩·真刚·斩铁·痛击(陆)",
      "UIID": "30114",
      "AttriName": null,
      "Attribute1ID": "atStrengthBase",
      "Attribute1Value1": "131",
      "Attribute1Value2": "131",
      "Score": 0,
      "DiamondType1": "5",
      "Compare1": "3",
      "DiamondCount1": "14",
      "DiamondIntensity1": "50",
      "Attribute2ID": "atPhysicsOvercomeBase",
      "Attribute2Value1": "1170",
      "Attribute2Value2": "1170",
      "DiamondType2": "5",
      "Compare2": "3",
      "DiamondCount2": "16",
      "DiamondIntensity2": "90",
      "Attribute3ID": "atPhysicsCriticalDamagePowerBase",
      "Attribute3Value1": "2340",
      "Attribute3Value2": "2340",
      "DiamondType3": "5",
      "Compare3": "3",
      "DiamondCount3": "18",
      "DiamondIntensity3": "108",
      "ScriptName": null,
      "Attribute4ID": null,
      "Attribute4Value1": null,
      "Attribute4Value2": null,
      "RepresentIndex": null,
      "RepresentID": null,
      "Time": null,
      "DestItemSubType": null,
      "TabType": "5",
      "TabIndex": "0",
      "PackageSize": null,
      "MapInvalidMask": null,
      "BelongKungfuID": null,
      "is_stone": "1",
      "stone_level": "6",
      "icon": "2341",
      "subtype": "3",
      "_AttriName": null,
      "_Attrs": [
        "atStrengthBase",
        "atPhysicsOvercomeBase",
        "atPhysicsCriticalDamagePowerBase"
      ],
      "_quality": null,
      "_latest_enhance": null
    },
    {
      "ID": 549,
      "Name": "彩·真刚·痛击·狂攻(陆)",
      "UIID": "30120",
      "AttriName": null,
      "Attribute1ID": "atStrengthBase",
      "Attribute1Value1": "131",
      "Attribute1Value2": "131",
      "Score": 0,
      "DiamondType1": "5",
      "Compare1": "3",
      "DiamondCount1": "14",
      "DiamondIntensity1": "50",
      "Attribute2ID": "atPhysicsCriticalDamagePowerBase",
      "Attribute2Value1": "1170",
      "Attribute2Value2": "1170",
      "DiamondType2": "5",
      "Compare2": "3",
      "DiamondCount2": "16",
      "DiamondIntensity2": "90",
      "Attribute3ID": "atMeleeWeaponDamageBase",
      "Attribute3Value1": "1571",
      "Attribute3Value2": "1571",
      "DiamondType3": "5",
      "Compare3": "3",
      "DiamondCount3": "18",
      "DiamondIntensity3": "108",
      "ScriptName": null,
      "Attribute4ID": null,
      "Attribute4Value1": null,
      "Attribute4Value2": null,
      "RepresentIndex": null,
      "RepresentID": null,
      "Time": null,
      "DestItemSubType": null,
      "TabType": "5",
      "TabIndex": "0",
      "PackageSize": null,
      "MapInvalidMask": null,
      "BelongKungfuID": null,
      "is_stone": "1",
      "stone_level": "6",
      "icon": "2341",
      "subtype": "3",
      "_AttriName": null,
      "_Attrs": [
        "atStrengthBase",
        "atPhysicsCriticalDamagePowerBase",
        "atMeleeWeaponDamageBase"
      ],
      "_quality": null,
      "_latest_enhance": null
    },
    {
      "ID": 555,
      "Name": "彩·真刚·痛击·斩铁(陆)",
      "UIID": "30126",
      "AttriName": null,
      "Attribute1ID": "atStrengthBase",
      "Attribute1Value1": "131",
      "Attribute1Value2": "131",
      "Score": 0,
      "DiamondType1": "5",
      "Compare1": "3",
      "DiamondCount1": "14",
      "DiamondIntensity1": "50",
      "Attribute2ID": "atPhysicsCriticalDamagePowerBase",
      "Attribute2Value1": "1170",
      "Attribute2Value2": "1170",
      "DiamondType2": "5",
      "Compare2": "3",
      "DiamondCount2": "16",
      "DiamondIntensity2": "90",
      "Attribute3ID": "atPhysicsOvercomeBase",
      "Attribute3Value1": "2340",
      "Attribute3Value2": "2340",
      "DiamondType3": "5",
      "Compare3": "3",
      "DiamondCount3": "18",
      "DiamondIntensity3": "108",
      "ScriptName": null,
      "Attribute4ID": null,
      "Attribute4Value1": null,
      "Attribute4Value2": null,
      "RepresentIndex": null,
      "RepresentID": null,
      "Time": null,
      "DestItemSubType": null,
      "TabType": "5",
      "TabIndex": "0",
      "PackageSize": null,
      "MapInvalidMask": null,
      "BelongKungfuID": null,
      "is_stone": "1",
      "stone_level": "6",
      "icon": "2341",
      "subtype": "3",
      "_AttriName": null,
      "_Attrs": [
        "atStrengthBase",
        "atPhysicsCriticalDamagePowerBase",
        "atPhysicsOvercomeBase"
      ],
      "_quality": null,
      "_latest_enhance": null
    }
  ]
}